[
    {
        "socialMedia": "facebook",
        "activity": "Page Views",
        "number": "87",
        "status": "up",
        "percentage": "3%"
    },
    {
        "socialMedia": "facebook",
        "activity": "Likes",
        "number": "52",
        "status": "down",
        "percentage": "2%"
    },
    {
        "socialMedia": "instagram",
        "activity": "Likes",
        "number": "5462",
        "status": "up",
        "percentage": "2257%"
    },
    {
        "socialMedia": "instagram",
        "activity": "Profile Views",
        "number": "52k",
        "status": "up",
        "percentage": "1375%"
    },
    {
        "socialMedia": "twitter",
        "activity": "Retweets",
        "number": "117",
        "status": "up",
        "percentage": "303%"
    },
    {
        "socialMedia": "twitter",
        "activity": "Likes",
        "number": "507",
        "status": "up",
        "percentage": "553%"
    },
    {
        "socialMedia": "youtube",
        "activity": "Likes",
        "number": "107",
        "status": "down",
        "percentage": "19%"
    },
    {
        "socialMedia": "youtube",
        "activity": "Total Views",
        "number": "1407",
        "status": "down",
        "percentage": "12%"
    }
]